M48
;Layer_Color=9474304
;FILE_FORMAT=4:3
METRIC,LZ
;TYPE=PLATED
T1F00S00C0.500
T2F00S00C0.800
T3F00S00C2.000
;TYPE=NON_PLATED
T4F00S00C3.000
%
T01
X0056Y0002
Y0004
Y0006
X0058
X00514Y001
X0029Y0009
Y0011
Y0013
Y0015
Y0017
Y0019
Y0021
X0035Y0025
X0037
X0039
X0041
Y0027
Y0029
X00498Y0023
Y00203
X0056Y002
Y0022
Y0024
Y0026
Y0018
T02
X0045Y0001748
Y0004252
T03
X006Y0011
X0003Y00115
Y00085
Y00185
Y00215
X006Y0019
T04
X006Y0003
X0003
Y0027
X006
M30
