G04 Layer_Color=16777215*
%FSLAX43Y43*%
%MOMM*%
G71*
G01*
G75*
%ADD22C,0.200*%
%ADD23C,0.250*%
%ADD24C,0.254*%
%ADD25C,0.600*%
%ADD26C,0.125*%
G36*
X47500Y2754D02*
X47404Y2271D01*
X47215Y1816D01*
X46942Y1406D01*
X46594Y1058D01*
X46184Y785D01*
X45729Y596D01*
X45246Y500D01*
X44754D01*
X44271Y596D01*
X43816Y785D01*
X43406Y1058D01*
X43058Y1406D01*
X42785Y1816D01*
X42596Y2271D01*
X42500Y2754D01*
Y3000D01*
X47500D01*
Y2754D01*
D02*
G37*
D22*
X47540Y3000D02*
G03*
X47540Y3000I-2540J0D01*
G01*
X49892Y4350D02*
Y7250D01*
X50908Y4350D02*
Y7250D01*
X49892D02*
X50908D01*
X49892Y4350D02*
X50908D01*
X50173Y10850D02*
Y11550D01*
X50448Y10850D02*
Y11550D01*
X43673Y19550D02*
Y20250D01*
X43948Y19550D02*
Y20250D01*
X40850Y3575D02*
Y26425D01*
X7150Y3575D02*
Y26425D01*
X40850D01*
X7150Y3575D02*
X40850D01*
X6600Y8000D02*
X5500Y7267D01*
X6600D02*
X5500Y8000D01*
X6600Y6392D02*
Y6916D01*
X6128Y6968D01*
X6181Y6916D01*
X6233Y6759D01*
Y6602D01*
X6181Y6445D01*
X6076Y6340D01*
X5919Y6288D01*
X5814D01*
X5657Y6340D01*
X5552Y6445D01*
X5500Y6602D01*
Y6759D01*
X5552Y6916D01*
X5605Y6968D01*
X5709Y7021D01*
X6600Y23500D02*
X5500Y22767D01*
X6600D02*
X5500Y23500D01*
X6443Y21892D02*
X6547Y21945D01*
X6600Y22102D01*
Y22206D01*
X6547Y22364D01*
X6390Y22468D01*
X6128Y22521D01*
X5867D01*
X5657Y22468D01*
X5552Y22364D01*
X5500Y22206D01*
Y22154D01*
X5552Y21997D01*
X5657Y21892D01*
X5814Y21840D01*
X5867D01*
X6024Y21892D01*
X6128Y21997D01*
X6181Y22154D01*
Y22206D01*
X6128Y22364D01*
X6024Y22468D01*
X5867Y22521D01*
X44000Y7600D02*
X44419Y6500D01*
X44838Y7600D02*
X44419Y6500D01*
X44979Y7600D02*
Y6500D01*
Y7600D02*
X45346D01*
X45503Y7547D01*
X45608Y7443D01*
X45660Y7338D01*
X45712Y7181D01*
Y6919D01*
X45660Y6762D01*
X45608Y6657D01*
X45503Y6552D01*
X45346Y6500D01*
X44979D01*
X45959Y7390D02*
X46063Y7443D01*
X46220Y7600D01*
Y6500D01*
X49000Y3100D02*
Y2000D01*
Y3100D02*
X49471D01*
X49628Y3047D01*
X49681Y2995D01*
X49733Y2890D01*
Y2786D01*
X49681Y2681D01*
X49628Y2628D01*
X49471Y2576D01*
X49000D01*
X49367D02*
X49733Y2000D01*
X50608Y2943D02*
X50555Y3047D01*
X50398Y3100D01*
X50294D01*
X50136Y3047D01*
X50032Y2890D01*
X49979Y2628D01*
Y2367D01*
X50032Y2157D01*
X50136Y2052D01*
X50294Y2000D01*
X50346D01*
X50503Y2052D01*
X50608Y2157D01*
X50660Y2314D01*
Y2367D01*
X50608Y2524D01*
X50503Y2628D01*
X50346Y2681D01*
X50294D01*
X50136Y2628D01*
X50032Y2524D01*
X49979Y2367D01*
X59100Y22500D02*
X59833Y21400D01*
Y22500D02*
X59100Y21400D01*
X60603Y22500D02*
X60079Y21767D01*
X60865D01*
X60603Y22500D02*
Y21400D01*
X59100Y8700D02*
X59833Y7600D01*
Y8700D02*
X59100Y7600D01*
X60184Y8700D02*
X60760D01*
X60446Y8281D01*
X60603D01*
X60708Y8228D01*
X60760Y8176D01*
X60812Y8019D01*
Y7914D01*
X60760Y7757D01*
X60655Y7652D01*
X60498Y7600D01*
X60341D01*
X60184Y7652D01*
X60132Y7705D01*
X60079Y7809D01*
X6600Y18500D02*
X5500Y17767D01*
X6600D02*
X5500Y18500D01*
X6338Y17468D02*
X6390D01*
X6495Y17416D01*
X6547Y17364D01*
X6600Y17259D01*
Y17049D01*
X6547Y16945D01*
X6495Y16892D01*
X6390Y16840D01*
X6286D01*
X6181Y16892D01*
X6024Y16997D01*
X5500Y17521D01*
Y16788D01*
X6600Y13500D02*
X5500Y12767D01*
X6600D02*
X5500Y13500D01*
X6390Y12521D02*
X6443Y12416D01*
X6600Y12259D01*
X5500D01*
X56400Y16700D02*
Y15600D01*
Y16700D02*
X56871D01*
X57028Y16647D01*
X57081Y16595D01*
X57133Y16490D01*
Y16386D01*
X57081Y16281D01*
X57028Y16228D01*
X56871Y16176D01*
X56400D01*
X56767D02*
X57133Y15600D01*
X58008Y16700D02*
X57484D01*
X57432Y16228D01*
X57484Y16281D01*
X57641Y16333D01*
X57798D01*
X57955Y16281D01*
X58060Y16176D01*
X58112Y16019D01*
Y15914D01*
X58060Y15757D01*
X57955Y15652D01*
X57798Y15600D01*
X57641D01*
X57484Y15652D01*
X57432Y15705D01*
X57379Y15809D01*
X56400Y15100D02*
Y14000D01*
Y15100D02*
X56871D01*
X57028Y15047D01*
X57081Y14995D01*
X57133Y14890D01*
Y14786D01*
X57081Y14681D01*
X57028Y14628D01*
X56871Y14576D01*
X56400D01*
X56767D02*
X57133Y14000D01*
X57903Y15100D02*
X57379Y14367D01*
X58165D01*
X57903Y15100D02*
Y14000D01*
X42400Y24200D02*
X43500D01*
X42400D02*
Y24671D01*
X42453Y24828D01*
X42505Y24881D01*
X42610Y24933D01*
X42714D01*
X42819Y24881D01*
X42872Y24828D01*
X42924Y24671D01*
Y24200D01*
Y24567D02*
X43500Y24933D01*
X42400Y25284D02*
Y25860D01*
X42819Y25546D01*
Y25703D01*
X42872Y25808D01*
X42924Y25860D01*
X43081Y25912D01*
X43186D01*
X43343Y25860D01*
X43448Y25755D01*
X43500Y25598D01*
Y25441D01*
X43448Y25284D01*
X43395Y25232D01*
X43291Y25179D01*
X42400Y21300D02*
X43500D01*
X42400D02*
Y21771D01*
X42453Y21928D01*
X42505Y21981D01*
X42610Y22033D01*
X42714D01*
X42819Y21981D01*
X42872Y21928D01*
X42924Y21771D01*
Y21300D01*
Y21667D02*
X43500Y22033D01*
X42662Y22332D02*
X42610D01*
X42505Y22384D01*
X42453Y22436D01*
X42400Y22541D01*
Y22751D01*
X42453Y22855D01*
X42505Y22908D01*
X42610Y22960D01*
X42714D01*
X42819Y22908D01*
X42976Y22803D01*
X43500Y22279D01*
Y23012D01*
X47100Y13400D02*
Y12300D01*
Y13400D02*
X47571D01*
X47728Y13347D01*
X47781Y13295D01*
X47833Y13190D01*
Y13086D01*
X47781Y12981D01*
X47728Y12928D01*
X47571Y12876D01*
X47100D01*
X47467D02*
X47833Y12300D01*
X48079Y13190D02*
X48184Y13243D01*
X48341Y13400D01*
Y12300D01*
X49100Y9000D02*
Y7900D01*
Y9000D02*
X49467D01*
X49624Y8947D01*
X49728Y8843D01*
X49781Y8738D01*
X49833Y8581D01*
Y8319D01*
X49781Y8162D01*
X49728Y8057D01*
X49624Y7952D01*
X49467Y7900D01*
X49100D01*
X50917D02*
X50498Y9000D01*
X50079Y7900D01*
X50236Y8267D02*
X50760D01*
X51226Y8738D02*
Y8790D01*
X51279Y8895D01*
X51331Y8947D01*
X51436Y9000D01*
X51645D01*
X51750Y8947D01*
X51802Y8895D01*
X51855Y8790D01*
Y8686D01*
X51802Y8581D01*
X51698Y8424D01*
X51174Y7900D01*
X51907D01*
X48400Y26800D02*
Y25700D01*
Y26800D02*
X48767D01*
X48924Y26747D01*
X49028Y26643D01*
X49081Y26538D01*
X49133Y26381D01*
Y26119D01*
X49081Y25962D01*
X49028Y25857D01*
X48924Y25752D01*
X48767Y25700D01*
X48400D01*
X50217D02*
X49798Y26800D01*
X49379Y25700D01*
X49536Y26067D02*
X50060D01*
X50474Y26590D02*
X50579Y26643D01*
X50736Y26800D01*
Y25700D01*
X47486Y11438D02*
X47433Y11543D01*
X47328Y11647D01*
X47224Y11700D01*
X47014D01*
X46909Y11647D01*
X46805Y11543D01*
X46752Y11438D01*
X46700Y11281D01*
Y11019D01*
X46752Y10862D01*
X46805Y10757D01*
X46909Y10652D01*
X47014Y10600D01*
X47224D01*
X47328Y10652D01*
X47433Y10757D01*
X47486Y10862D01*
X47847Y11438D02*
Y11490D01*
X47899Y11595D01*
X47952Y11647D01*
X48056Y11700D01*
X48266D01*
X48371Y11647D01*
X48423Y11595D01*
X48475Y11490D01*
Y11386D01*
X48423Y11281D01*
X48318Y11124D01*
X47795Y10600D01*
X48528D01*
X43786Y18838D02*
X43733Y18943D01*
X43628Y19047D01*
X43524Y19100D01*
X43314D01*
X43209Y19047D01*
X43105Y18943D01*
X43052Y18838D01*
X43000Y18681D01*
Y18419D01*
X43052Y18262D01*
X43105Y18157D01*
X43209Y18052D01*
X43314Y18000D01*
X43524D01*
X43628Y18052D01*
X43733Y18157D01*
X43786Y18262D01*
X44095Y18890D02*
X44199Y18943D01*
X44356Y19100D01*
Y18000D01*
X42500Y10438D02*
X41400Y10019D01*
X42500Y9600D01*
X42133Y9757D02*
Y10281D01*
X41610Y10695D02*
X41557Y10799D01*
X41400Y10956D01*
X42500D01*
X6600Y10500D02*
X5500D01*
Y9767D01*
Y20500D02*
X6600D01*
X5500Y19767D01*
X6600D01*
X56500Y9000D02*
X57600D01*
Y9550D01*
X57417Y9733D01*
X57233D01*
X57050Y9550D01*
Y9000D01*
Y9550D01*
X56867Y9733D01*
X56684D01*
X56500Y9550D01*
Y9000D01*
X57600Y10100D02*
X56867D01*
X56500Y10466D01*
X56867Y10833D01*
X57600D01*
X57050D01*
Y10100D01*
X56500Y11199D02*
Y11932D01*
Y11566D01*
X57600D01*
X57050Y12299D02*
Y13032D01*
X56684Y12665D02*
X57417D01*
X56400Y17600D02*
X57500D01*
Y18150D01*
X57317Y18333D01*
X57133D01*
X56950Y18150D01*
Y17600D01*
Y18150D01*
X56767Y18333D01*
X56584D01*
X56400Y18150D01*
Y17600D01*
X57500Y18700D02*
X56767D01*
X56400Y19066D01*
X56767Y19433D01*
X57500D01*
X56950D01*
Y18700D01*
X56400Y19799D02*
Y20532D01*
Y20166D01*
X57500D01*
X56950Y20899D02*
Y21632D01*
D23*
X50652Y4784D02*
G03*
X50652Y4784I-125J0D01*
G01*
X8855Y1765D02*
G03*
X8855Y1765I-125J0D01*
G01*
D24*
X50341Y19865D02*
G03*
X49071Y19865I-635J0D01*
G01*
X50341D02*
X50976D01*
X48436D02*
X49071D01*
X48436D02*
Y24945D01*
X50976D01*
Y19865D02*
Y24945D01*
D25*
X8450Y4575D02*
G03*
X8450Y4575I-300J0D01*
G01*
D26*
X48723Y1575D02*
X51248D01*
X48723Y425D02*
X51248D01*
X58723Y15425D02*
X61248D01*
X58723Y16575D02*
X61248D01*
X58752Y15075D02*
X61277D01*
X58752Y13925D02*
X61277D01*
X45075Y23723D02*
Y26248D01*
X43925Y23723D02*
Y26248D01*
X45075Y20923D02*
Y23448D01*
X43925Y20923D02*
Y23448D01*
X49052Y13375D02*
X51577D01*
X49052Y12225D02*
X51577D01*
X49017Y11784D02*
X51582D01*
X49010Y10616D02*
X51582D01*
X42517Y20484D02*
X45082D01*
X42510Y19316D02*
X45082D01*
M02*
